index,id,lat,lon
1,449,40.76461837,-73.98789473
2,254,40.73532427,-73.99800419
3,460,40.71285887,-73.96590294
4,398,40.69165183,-73.99997859999999
5,319,40.71336124,-74.00937622
6,521,40.75044999,-73.99481051
7,2000,40.70255088,-73.98940236
8,313,40.69610226,-73.96751037
9,528,40.74290902,-73.97706058
10,500,40.76228826,-73.98336183
11,237,40.73047309,-73.98672378
12,322,40.696191999999996,-73.991218
13,284,40.7390169121,-74.0026376103
14,361,40.71605866,-73.99190759
15,465,40.75513557,-73.98658032
16,128,40.72710258,-74.00297088
17,519,40.75188406,-73.97770164
18,482,40.73935542,-73.99931783
19,488,40.75645824,-73.99372222
20,201,40.75022392,-73.97121414
21,532,40.710451,-73.960876
22,127,40.73172428,-74.00674436
23,352,40.76340613,-73.97722479
24,368,40.73038599,-74.00214988
25,459,40.746745000000004,-74.007756
26,457,40.76695317,-73.98169333
27,369,40.73224119,-74.00026394
28,422,40.770513,-73.988038
29,311,40.7172274,-73.98802084
30,324,40.689888,-73.981013
31,346,40.73652889,-74.00618026
32,347,40.72873888,-74.00748842
33,417,40.71291224,-74.01020234
34,434,40.74317449,-74.00366443
35,479,40.76019252,-73.9912551
36,492,40.75019995,-73.99093085
37,529,40.75756989999999,-73.99098507
38,82,40.71117416,-74.00016545
39,462,40.74691959,-74.00451887
40,325,40.73624527,-73.98473765
41,483,40.73223272,-73.98889957
42,348,40.72490985,-74.00154702
43,365,40.68223166,-73.9614583
44,151,40.7218158,-73.99720307
45,432,40.72621788,-73.98379855
46,481,40.71260486,-73.96264403
47,516,40.75206862,-73.96784384
48,345,40.73649403,-73.99704374
49,355,40.71602118,-73.99974372
50,354,40.69363137,-73.96223558
51,308,40.71307916,-73.99851193
52,375,40.72679454,-73.99695094
53,285,40.73454567,-73.99074142
54,310,40.68926942,-73.98912867
55,493,40.7568001,-73.98291153
56,173,40.76064679,-73.98442659
57,518,40.74780373,-73.97344190000001
58,401,40.72019576,-73.98997825
59,423,40.76584941,-73.98690506
60,446,40.74487634,-73.99529885
61,494,40.74734825,-73.99723551
62,293,40.73028666,-73.9907647
63,453,40.74475148,-73.99915362
64,253,40.73543934,-73.99453948
65,489,40.75066386,-74.00176802
66,146,40.71625008,-74.0091059
67,382,40.73492695,-73.99200509
68,447,40.76370739,-73.9851615
69,232,40.69597683,-73.99014892
70,248,40.72185379,-74.00771779
71,386,40.71494807,-74.00234482
72,337,40.703799200000006,-74.00838676
73,531,40.71893904,-73.99266288
74,315,40.70355377,-74.00670227
75,408,40.71076228,-73.99400398
76,404,40.7405826,-74.00550867
77,258,40.68940747,-73.96885458
78,438,40.72779126,-73.98564945
79,389,40.71044554,-73.96525063
80,326,40.72953837,-73.98426726
81,410,40.72066442,-73.98517977
82,416,40.68753406,-73.97265183
83,394,40.72521311,-73.97768752
84,323,40.69236178,-73.98631746
85,257,40.71939226,-74.00247214
86,402,40.740343200000005,-73.98955109
87,116,40.74177603,-74.00149746
88,266,40.72368361,-73.97574813
89,440,40.75255434,-73.97282625
90,458,40.751396,-74.00522600000001
91,380,40.73401143,-74.00293877
92,238,40.7361967,-74.00859207
93,433,40.72955361,-73.98057249
94,477,40.75640548,-73.9900262
95,456,40.75971079999999,-73.97402311
96,303,40.72362738,-73.99949601
97,455,40.75001986,-73.96905301
98,396,40.680342423,-73.9557689392
99,439,40.726280700000004,-73.98978041
100,454,40.75455731,-73.96592976
101,120,40.68676793,-73.95928168
102,294,40.73049393,-73.99572140000001
103,499,40.76915505,-73.98191841
104,476,40.74394314,-73.97966069
105,505,40.74901271,-73.98848395
106,236,40.7284186,-73.98713956
107,335,40.72903917,-73.99404649
108,448,40.75660359,-73.9979009
109,526,40.74765947,-73.98490707
110,349,40.71850211,-73.98329859
111,503,40.73827428,-73.98751968
112,251,40.72317958,-73.99480012
113,225,40.74195138,-74.00803013
114,200,40.716887,-73.96319799999999
115,484,40.75500254,-73.98014437
116,450,40.76227205,-73.98788205
117,463,40.74206539,-74.00443172
118,330,40.71450451,-74.00562789
119,464,40.75934501,-73.96759673
120,498,40.74854862,-73.98808416
121,297,40.734232,-73.986923
122,2017,40.70277159,-73.99383605
123,336,40.73047747,-73.99906065
124,195,40.70905623,-74.01043382
125,307,40.71427487,-73.98990025
126,200,40.76590936,-73.97634151
127,305,40.76095756,-73.96724467
128,72,40.76727216,-73.99392888
129,391,40.69760127,-73.99344559
130,383,40.735238,-74.000271
131,409,40.6906495,-73.95643107
132,384,40.68317813,-73.9659641
133,534,40.70255065,-74.0127234
134,317,40.72453734,-73.98185424
135,267,40.75097711,-73.98765428
136,507,40.73912601,-73.97973776
137,444,40.742354299999995,-73.98915076
138,412,40.715815500000005,-73.99422366
139,252,40.73226398,-73.99852205
140,497,40.73704984,-73.99009296
141,312,40.722055,-73.989111
142,442,40.746646999999996,-73.993915
143,363,40.70834698,-74.01713445
144,328,40.72405549,-74.00965965
145,511,40.72938685,-73.97772429
146,300,40.728145,-73.990214
147,233,40.69246277,-73.98963911
148,538,40.75795248,-73.97787642
149,426,40.71754834,-74.01322069
150,2002,40.75849116,-73.95920622
151,509,40.7454973,-74.00197139
152,358,40.73291553,-74.00711384
153,344,40.6851443,-73.95380904
154,403,40.72502876,-73.99069656
155,428,40.72467721,-73.98783413
156,537,40.74025878,-73.98409214
157,244,40.69196035,-73.96536851
158,405,40.739323,-74.008119
159,540,40.74147286,-73.98320928
160,320,40.71743998,-74.00583475
161,387,40.71273266,-74.0046073
162,83,40.68382604,-73.97632328
163,536,40.74144387,-73.97536082
164,167,40.7489006,-73.97604882
165,467,40.68312489,-73.97895137
166,290,40.76020258,-73.96478473
167,512,40.750072700000004,-73.99839279
168,295,40.71406667,-73.99293911
169,495,40.76269882,-73.99301222
170,473,40.72110063,-73.99192540000001
171,350,40.71559509,-73.9870295
172,486,40.7462009,-73.98855723
173,362,40.75172632,-73.98753523
174,427,40.70251526,-74.01427023
175,353,40.68539567,-73.97431458
176,243,40.687979,-73.978474
177,533,40.75299641,-73.98721619
178,332,40.71219906,-73.97948148
179,327,40.715337899999994,-74.01658354
180,342,40.71739973,-73.98016555
181,388,40.749717753,-74.002950346
182,504,40.73221853,-73.98165557
183,304,40.70463334,-74.01361706
184,468,40.7652654,-73.98192338
185,309,40.7149787,-74.013012
186,520,40.75992262,-73.97648516
187,168,40.73971301,-73.99456405
188,224,40.71146364,-74.00552427
189,161,40.72917025,-73.99810231
190,420,40.68764484,-73.96968902
191,379,40.749156,-73.9916
192,160,40.748238,-73.978311
193,360,40.70717936,-74.00887308
194,445,40.72740794,-73.98142006
195,480,40.76669671,-73.99061728
196,469,40.76344058,-73.98268129
197,397,40.68415748,-73.96922273
198,247,40.73535398,-74.00483091
199,478,40.76030096,-73.99884222
200,263,40.717290000000006,-73.996375
201,157,40.69089272,-73.99612349
202,164,40.75323098,-73.97032517
203,470,40.74345335,-74.00004031
204,514,40.76087502,-74.00277668
205,152,40.71473993,-74.00910627
206,306,40.70823502,-74.00530063
207,334,40.74238787,-73.99726235
208,271,40.68528172,-73.97805813
209,415,40.7047177,-74.00926027
210,296,40.71413089,-73.99704679999999
211,545,40.736502,-73.97809472
212,229,40.72743423,-73.99379025
213,546,40.74444921,-73.98303529
214,2001,40.739445,-73.97680600000001
215,270,40.69308257,-73.97178913
216,316,40.70955958,-74.00653609
217,2023,40.73781509,-73.99994661
218,501,40.744219,-73.97121214
219,472,40.745712100000006,-73.98194829
220,377,40.72243797,-74.00566443
221,385,40.75797322,-73.96603308
222,513,40.768254,-73.988639
223,262,40.69178232,-73.97372989
224,357,40.73261787,-73.99158043
225,461,40.73587678,-73.98205027
226,515,40.76009437,-73.99461843
227,510,40.7606597,-73.98042047
228,418,40.70224,-73.982578
229,490,40.751551,-73.993934
230,527,40.74315566,-73.97434726
231,259,40.70122128,-74.01234218
232,298,40.68683208,-73.9796772
233,496,40.73726186,-73.99238967
234,474,40.7451677,-73.98683077
235,2021,40.75929124,-73.98859651
236,301,40.72217444,-73.98368779
237,351,40.70530954,-74.00612572
238,228,40.7546011026,-73.971878855
239,331,40.71173107,-73.99193043
240,393,40.72299208,-73.97995466
241,302,40.711512,-74.01575600000001
242,276,40.71748752,-74.0104554
243,421,40.69573398,-73.97129668
244,282,40.70827295,-73.96834101
245,359,40.75510267,-73.97498696
246,280,40.73331967,-73.99510132
247,143,40.69239502,-73.99337909
248,436,40.68216564,-73.95399026
249,241,40.68981035,-73.97493121
250,376,40.70862144,-74.00722156
251,2023,40.73416059,-73.98024289
252,475,40.73524276,-73.98758561
253,341,40.71782143,-73.97628939
254,373,40.69331716,-73.95381995
255,487,40.73314259,-73.97573881
256,435,40.74173969,-73.99415556
257,356,40.71622644,-73.98261206
258,539,40.71534825,-73.96024116
259,318,40.75320159,-73.9779874
260,466,40.74395411,-73.99144871
261,406,40.69512845,-73.99595065
262,216,40.70037867,-73.99548059
263,264,40.70706456,-74.00731853
264,485,40.75038009,-73.98338988
265,367,40.75828065,-73.97069431
266,249,40.71870987,-74.0090009
267,79,40.71911552,-74.00666661
268,260,40.70365182,-74.01167797
269,340,40.71269042,-73.98776323
270,523,40.75466591,-73.99138152
271,364,40.68900443,-73.96023854
272,366,40.693261,-73.968896
273,2004,40.724399,-74.004704
274,525,40.75594159,-74.0021163
275,3002,40.72082834,-73.97793172
276,329,40.72043411,-74.01020609
277,278,40.69766564,-73.98476437
278,274,40.68691865,-73.976682
279,281,40.764397100000004,-73.97371465
280,517,40.75149263,-73.97798848
281,150,40.720873600000004,-73.98085795
282,441,40.756014,-73.967416
283,2008,40.70569254,-74.01677685
284,395,40.68807003,-73.98410637
285,174,40.7381765,-73.97738662
286,2010,40.72165481,-74.00234737
287,291,40.713126,-73.984844
288,265,40.72229346,-73.99147535
289,431,40.68864636,-73.98263429
290,147,40.71542197,-74.01121978
291,314,40.69424674,-73.99215922
292,522,40.75714758,-73.97207836
293,261,40.69474881,-73.98362464
294,414,40.70281858,-73.98765762
295,419,40.69580705,-73.97355569
296,153,40.752062306999996,-73.9816324043
297,119,40.69608941,-73.97803415
298,279,40.69986937,-73.98271933
299,250,40.72456089,-73.99565293
300,289,40.684568299999995,-73.95881081
301,524,40.75527307,-73.98316936
302,223,40.75968085,-73.97031366
303,268,40.71910537,-73.99973337
304,390,40.69221589,-73.9842844
305,2012,40.74334935,-74.00681753
306,339,40.72580614,-73.97422494
307,399,40.68851534,-73.9647628
308,471,40.71286844,-73.95698119
309,430,40.7014851,-73.98656928
310,437,40.6809833854,-73.9500479759
311,137,40.761628,-73.972924
312,407,40.700469,-73.991454
313,275,40.68650065,-73.96563307
314,218,40.69028437,-73.98707105
315,411,40.72228087,-73.97668709
316,400,40.71926081,-73.98178024
317,2009,40.71117444,-73.99682619
318,508,40.76341379,-73.99667444
319,343,40.69794,-73.96986848
320,443,40.70853074,-73.96408963
321,239,40.69196566,-73.9813018
322,372,40.694528000000005,-73.958089
323,245,40.69327018,-73.97703874
324,242,40.69788349,-73.97350332
325,2005,40.69892054,-73.97332996
326,144,40.69839895,-73.98068914
327,321,40.69991755,-73.98971773
328,2006,40.70531194,-73.97100056
329,392,40.695065,-73.987167
330,502,40.714215,-73.981346