day,Friday,Friday,Monday,Monday,Saturday,Saturday,Sunday,Sunday,Thursday,Thursday,Tuesday,Tuesday,Wednesday,Wednesday
timeslot,00-11,12-23,00-11,12-23,00-11,12-23,00-11,12-23,00-11,12-23,00-11,12-23,00-11,12-23
end station id,,,,,,,,,,,,,,
72,-23.0,26.0,-13.0,20.0,-7.0,28.0,-1.0,6.0,-14.0,24.0,-16.0,21.0,-14.0,25.0
79,23.0,-25.0,19.0,-15.0,9.0,-25.0,5.0,-13.0,17.0,-18.0,12.0,-7.0,14.0,-16.0
82,-3.0,-1.0,-5.0,4.0,-2.0,0.0,4.0,-1.0,-3.0,2.0,-4.0,-0.0,-7.0,2.0
83,3.0,20.0,-3.0,14.0,6.0,0.0,4.0,6.0,5.0,2.0,-1.0,10.0,2.0,4.0
116,8.0,-5.0,8.0,-8.0,-2.0,6.0,-6.0,0.0,5.0,-10.0,3.0,-4.0,6.0,-6.0
119,-3.0,4.0,-2.0,3.0,0.0,1.0,-1.0,-1.0,-4.0,4.0,-1.0,2.0,-4.0,2.0
120,-8.0,7.0,-4.0,6.0,-2.0,3.0,-0.0,2.0,-8.0,7.0,-3.0,5.0,-5.0,7.0
127,-19.0,21.0,-14.0,14.0,-7.0,-2.0,-8.0,-2.0,-10.0,12.0,-4.0,12.0,-11.0,9.0
128,27.0,-14.0,12.0,-18.0,1.0,-0.0,6.0,12.0,21.0,-22.0,16.0,-14.0,17.0,-18.0
137,46.0,-35.0,31.0,-32.0,17.0,-10.0,2.0,5.0,45.0,-32.0,31.0,-30.0,36.0,-34.0
143,-9.0,12.0,-7.0,12.0,0.0,6.0,2.0,-0.0,-8.0,10.0,-5.0,11.0,-4.0,12.0
144,1.0,-2.0,0.0,-0.0,1.0,-4.0,2.0,-6.0,1.0,-0.0,-1.0,0.0,-2.0,1.0
146,-2.0,-12.0,9.0,-10.0,1.0,-3.0,-1.0,-9.0,3.0,-1.0,-0.0,-10.0,-1.0,-12.0
147,24.0,-21.0,17.0,-15.0,11.0,5.0,16.0,10.0,25.0,-18.0,19.0,-16.0,24.0,-20.0
150,-18.0,22.0,-6.0,22.0,-5.0,-8.0,-3.0,7.0,-17.0,17.0,-11.0,17.0,-20.0,23.0
151,20.0,-22.0,12.0,-24.0,40.0,-24.0,7.0,-3.0,33.0,-24.0,18.0,-25.0,21.0,-23.0
152,13.0,-9.0,9.0,-11.0,2.0,4.0,8.0,-2.0,7.0,-7.0,12.0,-8.0,9.0,-12.0
153,52.0,-51.0,37.0,-32.0,5.0,-16.0,2.0,-8.0,53.0,-58.0,33.0,-32.0,37.0,-36.0
157,-10.0,21.0,-4.0,12.0,-6.0,12.0,-4.0,-1.0,-20.0,16.0,-10.0,18.0,-11.0,20.0
160,-10.0,-6.0,-10.0,-2.0,2.0,-2.0,-3.0,7.0,-3.0,2.0,-2.0,0.0,-3.0,7.0
161,-6.0,5.0,-3.0,1.0,-6.0,-2.0,-3.0,-0.0,-1.0,3.0,-4.0,8.0,-4.0,-5.0
164,34.0,-38.0,30.0,-32.0,-0.0,4.0,-6.0,2.0,32.0,-24.0,26.0,-26.0,34.0,-25.0
167,11.0,-28.0,20.0,-34.0,3.0,-8.0,-7.0,6.0,28.0,-21.0,18.0,-27.0,18.0,-23.0
168,29.0,-29.0,16.0,-29.0,14.0,17.0,14.0,6.0,41.0,-26.0,24.0,-16.0,36.0,-16.0
173,30.0,-30.0,18.0,-34.0,-3.0,6.0,-2.0,-9.0,26.0,-28.0,21.0,-28.0,16.0,-15.0
174,-10.0,-8.0,-13.0,16.0,-2.0,-7.0,-3.0,10.0,-22.0,2.0,-16.0,9.0,-18.0,15.0
195,40.0,-43.0,40.0,-35.0,6.0,-1.0,2.0,-11.0,40.0,-37.0,30.0,-31.0,35.0,-24.0
212,25.0,-18.0,11.0,-16.0,10.0,-13.0,9.0,-6.0,26.0,-20.0,16.0,-17.0,18.0,-18.0
216,-4.0,-4.0,-1.0,-2.0,-0.0,-12.0,-4.0,-6.0,-4.0,6.0,-4.0,2.0,-4.0,1.0
217,8.0,-2.0,2.0,-2.0,7.0,2.0,10.0,5.0,8.0,1.0,3.0,4.0,2.0,-6.0
218,1.0,4.0,-0.0,2.0,2.0,5.0,1.0,0.0,4.0,-6.0,2.0,2.0,2.0,3.0
223,-14.0,10.0,-6.0,16.0,-1.0,-12.0,4.0,-8.0,-23.0,17.0,-11.0,14.0,-16.0,17.0
224,4.0,-4.0,-1.0,-2.0,-7.0,8.0,-5.0,10.0,-5.0,-2.0,-3.0,4.0,1.0,-4.0
225,13.0,-1.0,13.0,-13.0,5.0,20.0,8.0,5.0,13.0,2.0,12.0,-12.0,14.0,-7.0
228,52.0,-34.0,30.0,-25.0,1.0,-0.0,-4.0,-2.0,50.0,-42.0,37.0,-27.0,46.0,-37.0
229,6.0,-19.0,12.0,-10.0,11.0,-19.0,5.0,-16.0,19.0,-7.0,10.0,-12.0,16.0,-11.0
232,2.0,-4.0,-1.0,2.0,10.0,8.0,8.0,-4.0,-2.0,1.0,2.0,-3.0,-1.0,0.0
233,23.0,-17.0,11.0,-18.0,10.0,0.0,1.0,1.0,22.0,-13.0,18.0,-16.0,13.0,-22.0
236,-26.0,50.0,-20.0,36.0,-10.0,16.0,-5.0,18.0,-24.0,52.0,-21.0,44.0,-16.0,34.0
237,-24.0,38.0,-20.0,41.0,-18.0,9.0,-6.0,21.0,-36.0,31.0,-24.0,33.0,-40.0,44.0
238,-20.0,27.0,-11.0,24.0,-6.0,2.0,-4.0,-4.0,-26.0,24.0,-14.0,24.0,-21.0,31.0
239,17.0,-20.0,12.0,-19.0,-0.0,0.0,1.0,-6.0,26.0,-18.0,16.0,-18.0,21.0,-18.0
241,-4.0,2.0,-5.0,6.0,2.0,-0.0,2.0,-0.0,-10.0,9.0,-6.0,6.0,-8.0,4.0
242,1.0,-1.0,0.0,-2.0,0.0,-0.0,0.0,2.0,0.0,6.0,-0.0,0.0,-1.0,3.0
243,7.0,-22.0,1.0,-20.0,-2.0,-8.0,1.0,-3.0,9.0,-23.0,4.0,-15.0,3.0,-18.0
244,-16.0,16.0,-14.0,16.0,-6.0,-3.0,1.0,3.0,-15.0,14.0,-14.0,14.0,-17.0,15.0
245,-4.0,2.0,-6.0,3.0,-2.0,2.0,-2.0,0.0,-6.0,2.0,-4.0,2.0,-5.0,1.0
247,-11.0,11.0,-2.0,12.0,-5.0,3.0,0.0,-2.0,-16.0,20.0,-10.0,14.0,-12.0,13.0
248,10.0,-11.0,11.0,-17.0,-0.0,-2.0,1.0,-2.0,17.0,-15.0,12.0,-11.0,12.0,-11.0
249,22.0,-16.0,16.0,-20.0,-2.0,-6.0,3.0,-8.0,29.0,-20.0,14.0,-17.0,24.0,-14.0
250,8.0,-7.0,6.0,-8.0,7.0,-13.0,3.0,-5.0,9.0,-9.0,6.0,-9.0,5.0,-5.0
251,12.0,-8.0,5.0,-8.0,0.0,-1.0,0.0,-5.0,10.0,-6.0,3.0,1.0,7.0,-4.0
252,-8.0,4.0,-4.0,16.0,-9.0,-2.0,-1.0,-4.0,-17.0,17.0,-5.0,21.0,-14.0,11.0
253,3.0,-3.0,-0.0,-8.0,-0.0,-4.0,3.0,-6.0,9.0,-16.0,2.0,-5.0,8.0,-9.0
254,-10.0,18.0,-4.0,6.0,-7.0,-2.0,-5.0,5.0,-16.0,8.0,-2.0,13.0,-9.0,8.0
257,35.0,-29.0,22.0,-23.0,11.0,1.0,3.0,-5.0,29.0,-18.0,25.0,-20.0,29.0,-24.0
258,-17.0,7.0,-6.0,10.0,-2.0,-6.0,-5.0,0.0,-18.0,10.0,-9.0,7.0,-12.0,8.0
259,16.0,-19.0,14.0,-20.0,8.0,-4.0,7.0,-16.0,22.0,-18.0,10.0,-22.0,20.0,-22.0
260,27.0,-34.0,22.0,-28.0,0.0,-11.0,-0.0,-2.0,32.0,-36.0,21.0,-29.0,28.0,-25.0
261,-6.0,14.0,-9.0,10.0,-13.0,14.0,-6.0,11.0,-6.0,8.0,-4.0,12.0,-8.0,11.0
262,-11.0,5.0,-10.0,10.0,-7.0,-4.0,-2.0,1.0,-14.0,8.0,-12.0,10.0,-14.0,11.0
263,6.0,-1.0,4.0,-4.0,8.0,-14.0,22.0,-11.0,1.0,-1.0,0.0,3.0,3.0,-5.0
264,23.0,-13.0,25.0,-21.0,1.0,5.0,-0.0,12.0,24.0,-14.0,20.0,-12.0,17.0,-14.0
265,-6.0,27.0,-6.0,16.0,-1.0,-1.0,3.0,1.0,2.0,10.0,-9.0,18.0,-6.0,19.0
266,-18.0,15.0,-7.0,18.0,-6.0,4.0,-3.0,1.0,-15.0,15.0,-13.0,17.0,-18.0,16.0
267,3.0,-8.0,-4.0,-4.0,2.0,-9.0,-0.0,-3.0,6.0,-9.0,4.0,-5.0,4.0,-4.0
268,20.0,-21.0,15.0,-20.0,13.0,-23.0,8.0,-4.0,17.0,-9.0,14.0,-14.0,17.0,-19.0
270,-18.0,17.0,-9.0,21.0,1.0,-10.0,-2.0,-2.0,-24.0,22.0,-18.0,17.0,-16.0,16.0
271,-6.0,20.0,-3.0,8.0,10.0,0.0,2.0,-11.0,-2.0,14.0,-4.0,12.0,2.0,6.0
274,-4.0,5.0,-6.0,5.0,3.0,-8.0,3.0,-1.0,1.0,5.0,-1.0,4.0,-7.0,8.0
275,-8.0,6.0,-5.0,10.0,-2.0,3.0,-4.0,0.0,-11.0,7.0,-7.0,5.0,-10.0,8.0
276,8.0,-12.0,6.0,-10.0,4.0,3.0,0.0,-0.0,4.0,-2.0,10.0,-12.0,7.0,-8.0
278,-9.0,5.0,-7.0,4.0,-3.0,-6.0,1.0,1.0,-9.0,9.0,-6.0,5.0,-8.0,8.0
279,0.0,2.0,-2.0,2.0,-1.0,-0.0,-3.0,7.0,-1.0,1.0,-0.0,0.0,2.0,-2.0
280,-14.0,4.0,-4.0,11.0,-2.0,-7.0,-0.0,-1.0,-14.0,12.0,-10.0,7.0,-11.0,-1.0
281,39.0,-40.0,30.0,-17.0,36.0,-16.0,32.0,-32.0,44.0,-35.0,34.0,-31.0,43.0,-29.0
282,-2.0,2.0,-2.0,4.0,1.0,10.0,-1.0,1.0,-0.0,2.0,-4.0,5.0,-7.0,4.0
284,-13.0,19.0,-1.0,27.0,-7.0,11.0,7.0,-18.0,-16.0,22.0,-11.0,23.0,-12.0,20.0
285,14.0,-17.0,4.0,-13.0,5.0,-34.0,7.0,-25.0,3.0,-32.0,10.0,-29.0,-1.0,-27.0
289,-4.0,2.0,-5.0,4.0,-3.0,1.0,-3.0,2.0,-6.0,6.0,-2.0,5.0,-5.0,5.0
290,-12.0,-3.0,-10.0,-5.0,-3.0,2.0,-8.0,8.0,-6.0,9.0,-7.0,-4.0,-1.0,0.0
291,-16.0,14.0,-10.0,12.0,-10.0,4.0,-4.0,2.0,-20.0,12.0,-11.0,14.0,-14.0,10.0
293,4.0,-6.0,2.0,3.0,39.0,-54.0,-4.0,-20.0,18.0,-4.0,10.0,8.0,18.0,-2.0
294,2.0,-9.0,1.0,-0.0,4.0,-0.0,3.0,-5.0,5.0,-4.0,1.0,3.0,-0.0,-2.0
295,-8.0,0.0,-2.0,6.0,7.0,-2.0,4.0,-9.0,-6.0,7.0,-6.0,10.0,-4.0,-1.0
296,8.0,-1.0,0.0,0.0,8.0,-8.0,8.0,-4.0,0.0,2.0,2.0,-0.0,2.0,6.0
297,-8.0,15.0,-4.0,14.0,0.0,1.0,-2.0,1.0,-14.0,12.0,-9.0,9.0,-16.0,10.0
298,-3.0,9.0,-4.0,3.0,1.0,1.0,0.0,2.0,-4.0,3.0,-4.0,6.0,-4.0,2.0
300,6.0,8.0,6.0,3.0,3.0,-8.0,-2.0,2.0,9.0,7.0,8.0,8.0,-4.0,1.0
301,-29.0,39.0,-18.0,28.0,-19.0,12.0,-8.0,13.0,-32.0,40.0,-21.0,29.0,-33.0,32.0
302,-9.0,11.0,-7.0,9.0,-6.0,3.0,-2.0,4.0,-15.0,10.0,-9.0,14.0,-9.0,12.0
303,28.0,-8.0,19.0,-24.0,15.0,-1.0,9.0,0.0,26.0,-26.0,20.0,-18.0,23.0,-20.0
304,30.0,-32.0,20.0,-17.0,11.0,-4.0,12.0,3.0,38.0,-35.0,25.0,-29.0,30.0,-28.0
305,18.0,-18.0,5.0,-11.0,18.0,16.0,2.0,15.0,20.0,-20.0,8.0,-13.0,13.0,-17.0
306,14.0,-13.0,13.0,-16.0,-5.0,8.0,-0.0,2.0,13.0,-7.0,11.0,-9.0,11.0,-8.0
307,-27.0,10.0,-17.0,22.0,-5.0,5.0,-2.0,5.0,-26.0,24.0,-14.0,18.0,-25.0,22.0
308,-8.0,12.0,-6.0,5.0,-6.0,-5.0,4.0,-1.0,-7.0,5.0,-8.0,-1.0,-8.0,6.0
309,46.0,-37.0,40.0,-26.0,7.0,26.0,8.0,16.0,60.0,-38.0,36.0,-27.0,47.0,-33.0
310,-6.0,18.0,-5.0,18.0,-2.0,17.0,2.0,10.0,-6.0,18.0,-6.0,20.0,-6.0,23.0
311,-13.0,21.0,-8.0,13.0,-2.0,5.0,-6.0,-2.0,-16.0,16.0,-14.0,14.0,-14.0,14.0
312,-25.0,33.0,-14.0,23.0,-14.0,20.0,-10.0,9.0,-30.0,28.0,-17.0,28.0,-17.0,20.0
313,-8.0,11.0,-6.0,8.0,0.0,7.0,-1.0,6.0,-6.0,9.0,-5.0,12.0,-6.0,9.0
314,-2.0,4.0,-2.0,2.0,-0.0,-17.0,-2.0,-1.0,-2.0,-1.0,1.0,-4.0,2.0,-4.0
315,12.0,-12.0,0.0,-12.0,19.0,-16.0,14.0,-16.0,11.0,-4.0,10.0,-10.0,12.0,-12.0
316,3.0,-14.0,6.0,-9.0,0.0,-2.0,-3.0,-0.0,8.0,-12.0,7.0,-8.0,3.0,-10.0
317,-21.0,34.0,-24.0,24.0,-10.0,17.0,-9.0,13.0,-42.0,22.0,-26.0,16.0,-26.0,22.0
318,18.0,-18.0,-1.0,-18.0,3.0,-4.0,5.0,-11.0,-2.0,-28.0,-2.0,-21.0,-1.0,-13.0
319,13.0,-14.0,4.0,-10.0,5.0,2.0,8.0,-3.0,8.0,-12.0,4.0,-13.0,6.0,-5.0
320,10.0,-13.0,15.0,-10.0,-4.0,-8.0,-5.0,-9.0,10.0,-6.0,8.0,-18.0,14.0,-10.0
321,0.0,0.0,0.0,-1.0,-0.0,-1.0,1.0,1.0,0.0,0.0,0.0,-1.0,0.0,-1.0
322,-8.0,9.0,-4.0,8.0,1.0,19.0,4.0,-6.0,-4.0,7.0,-8.0,6.0,-7.0,0.0
323,27.0,-26.0,28.0,-30.0,18.0,-26.0,6.0,-14.0,37.0,-27.0,26.0,-29.0,36.0,-32.0
324,2.0,8.0,4.0,0.0,-0.0,-4.0,-2.0,-1.0,8.0,-2.0,4.0,5.0,1.0,1.0
325,-16.0,-6.0,-8.0,14.0,-14.0,6.0,-8.0,-1.0,-20.0,8.0,-12.0,12.0,-16.0,12.0
326,-20.0,19.0,-12.0,13.0,-1.0,11.0,-5.0,5.0,-21.0,23.0,-24.0,20.0,-19.0,17.0
327,14.0,-14.0,9.0,-20.0,4.0,-5.0,8.0,-15.0,15.0,-3.0,14.0,-16.0,15.0,-15.0
328,12.0,-10.0,6.0,-10.0,-4.0,2.0,-4.0,8.0,13.0,-9.0,5.0,-9.0,13.0,-10.0
329,29.0,-37.0,28.0,-22.0,8.0,-6.0,9.0,-6.0,51.0,-40.0,36.0,-21.0,48.0,-22.0
330,20.0,-25.0,15.0,-21.0,4.0,-2.0,2.0,-5.0,22.0,-31.0,17.0,-20.0,20.0,-22.0
331,-12.0,10.0,-11.0,12.0,-1.0,5.0,1.0,5.0,-8.0,9.0,-6.0,5.0,-16.0,15.0
332,-16.0,21.0,-14.0,14.0,-2.0,5.0,-1.0,1.0,-18.0,16.0,-14.0,14.0,-11.0,15.0
334,2.0,-5.0,3.0,-9.0,6.0,-4.0,-5.0,9.0,-4.0,3.0,0.0,-0.0,3.0,-4.0
335,15.0,-17.0,4.0,-3.0,2.0,-0.0,-2.0,-5.0,13.0,-17.0,8.0,-7.0,20.0,-18.0
336,-20.0,29.0,-5.0,20.0,-8.0,13.0,-1.0,-4.0,-12.0,23.0,-13.0,26.0,-20.0,17.0
337,25.0,-33.0,28.0,-31.0,-4.0,-1.0,1.0,-9.0,32.0,-31.0,26.0,-24.0,26.0,-29.0
339,-13.0,16.0,-8.0,13.0,-4.0,-2.0,-3.0,1.0,-16.0,14.0,-14.0,13.0,-14.0,16.0
340,-11.0,9.0,-7.0,11.0,-1.0,0.0,-3.0,4.0,-13.0,11.0,-8.0,16.0,-13.0,10.0
341,-8.0,4.0,-9.0,8.0,-2.0,0.0,-2.0,9.0,-4.0,6.0,-6.0,6.0,-6.0,6.0
342,-15.0,15.0,-11.0,24.0,-4.0,0.0,-2.0,-1.0,-18.0,21.0,-8.0,14.0,-14.0,18.0
343,1.0,3.0,4.0,2.0,3.0,6.0,0.0,7.0,2.0,2.0,4.0,9.0,2.0,-2.0
344,-3.0,4.0,-0.0,6.0,0.0,5.0,-0.0,6.0,-3.0,3.0,-3.0,8.0,-2.0,4.0
345,-8.0,6.0,-2.0,3.0,1.0,-12.0,-0.0,-6.0,-11.0,3.0,0.0,-0.0,-6.0,3.0
346,-22.0,21.0,-8.0,18.0,-4.0,1.0,-4.0,0.0,-24.0,21.0,-13.0,11.0,-16.0,17.0
347,31.0,-11.0,30.0,-22.0,12.0,15.0,10.0,-13.0,33.0,-18.0,23.0,-20.0,24.0,-19.0
348,43.0,-38.0,29.0,-5.0,14.0,-3.0,14.0,-10.0,33.0,-27.0,28.0,-25.0,33.0,-13.0
349,-14.0,12.0,-9.0,20.0,-6.0,-3.0,-4.0,6.0,-20.0,18.0,-10.0,14.0,-17.0,18.0
350,-16.0,26.0,-21.0,29.0,-14.0,8.0,-2.0,9.0,-20.0,25.0,-18.0,23.0,-19.0,23.0
351,26.0,-23.0,17.0,-14.0,4.0,7.0,2.0,1.0,34.0,-29.0,20.0,-28.0,26.0,-37.0
352,32.0,-24.0,13.0,-17.0,10.0,-8.0,6.0,-6.0,34.0,-25.0,20.0,-14.0,28.0,-16.0
353,-4.0,7.0,-2.0,3.0,-1.0,-2.0,-0.0,-3.0,-4.0,3.0,-0.0,-0.0,-2.0,6.0
354,-6.0,11.0,-4.0,12.0,3.0,-6.0,0.0,-4.0,-11.0,15.0,-5.0,8.0,-8.0,13.0
355,-1.0,8.0,11.0,-10.0,-4.0,-7.0,8.0,-6.0,-2.0,2.0,5.0,-10.0,11.0,-9.0
356,-19.0,19.0,-12.0,16.0,-14.0,3.0,-4.0,2.0,-20.0,17.0,-12.0,14.0,-15.0,20.0
357,4.0,1.0,-1.0,1.0,-8.0,-1.0,-1.0,-3.0,14.0,-4.0,4.0,-2.0,6.0,-4.0
358,-11.0,23.0,-14.0,21.0,-0.0,3.0,-3.0,-10.0,-24.0,30.0,-14.0,18.0,-18.0,26.0
359,72.0,-50.0,62.0,-33.0,32.0,-7.0,4.0,-4.0,79.0,-44.0,48.0,-41.0,68.0,-48.0
360,20.0,-27.0,19.0,-28.0,-4.0,2.0,-6.0,-4.0,19.0,-29.0,20.0,-21.0,22.0,-18.0
361,-18.0,26.0,-13.0,14.0,2.0,15.0,8.0,2.0,-17.0,24.0,-11.0,19.0,-20.0,18.0
362,-0.0,-23.0,-5.0,-16.0,1.0,3.0,2.0,-7.0,4.0,-11.0,-0.0,-17.0,3.0,-26.0
363,-45.0,44.0,-28.0,22.0,-22.0,21.0,-20.0,10.0,-41.0,26.0,-28.0,30.0,-41.0,34.0
364,-4.0,5.0,-2.0,4.0,-2.0,2.0,-2.0,1.0,-4.0,4.0,-1.0,3.0,-4.0,10.0
365,-9.0,8.0,-8.0,10.0,-4.0,1.0,2.0,-2.0,-8.0,11.0,-5.0,12.0,-10.0,12.0
366,-23.0,25.0,-16.0,24.0,-10.0,-4.0,-2.0,5.0,-27.0,22.0,-15.0,27.0,-17.0,21.0
367,31.0,-30.0,23.0,-19.0,1.0,-5.0,1.0,-8.0,33.0,-28.0,30.0,-25.0,32.0,-26.0
368,-7.0,26.0,-5.0,18.0,-8.0,17.0,-2.0,14.0,-8.0,27.0,-12.0,17.0,0.0,16.0
369,-19.0,25.0,-4.0,19.0,-17.0,6.0,-9.0,-2.0,-21.0,22.0,-15.0,28.0,-20.0,26.0
372,-1.0,2.0,-3.0,4.0,0.0,2.0,2.0,2.0,-1.0,1.0,0.0,4.0,-2.0,1.0
373,-5.0,6.0,-5.0,7.0,-4.0,3.0,-2.0,4.0,-4.0,6.0,-3.0,4.0,-6.0,6.0
375,17.0,-14.0,14.0,-15.0,3.0,3.0,4.0,-1.0,28.0,-22.0,10.0,-19.0,18.0,-14.0
376,16.0,-27.0,10.0,-16.0,0.0,6.0,-1.0,7.0,10.0,-14.0,14.0,-19.0,12.0,-13.0
377,38.0,-26.0,32.0,-32.0,-0.0,2.0,-2.0,-0.0,36.0,-30.0,23.0,-28.0,36.0,-25.0
379,-38.0,15.0,-34.0,23.0,13.0,-18.0,0.0,-23.0,-59.0,28.0,-42.0,11.0,-45.0,23.0
380,-4.0,15.0,-2.0,18.0,-1.0,5.0,1.0,0.0,-7.0,16.0,-4.0,12.0,-3.0,6.0
382,11.0,-1.0,2.0,-18.0,12.0,-11.0,7.0,-7.0,16.0,-2.0,10.0,-13.0,12.0,-17.0
383,0.0,-4.0,2.0,2.0,0.0,-4.0,2.0,5.0,-0.0,-1.0,4.0,1.0,5.0,-0.0
384,-6.0,14.0,-3.0,6.0,-4.0,4.0,-1.0,-1.0,-3.0,10.0,-1.0,12.0,-4.0,8.0
385,-4.0,-0.0,-3.0,-1.0,-4.0,2.0,-7.0,4.0,-1.0,2.0,-2.0,-1.0,-2.0,4.0
386,27.0,-38.0,23.0,-34.0,4.0,-11.0,6.0,-16.0,26.0,-27.0,20.0,-36.0,27.0,-24.0
387,14.0,-30.0,8.0,-21.0,13.0,-26.0,4.0,-1.0,4.0,-19.0,10.0,-25.0,14.0,-26.0
388,30.0,-22.0,21.0,-22.0,2.0,-1.0,4.0,-2.0,34.0,-20.0,17.0,-16.0,22.0,-22.0
389,-8.0,12.0,-7.0,8.0,-4.0,2.0,2.0,2.0,-8.0,6.0,-5.0,12.0,-6.0,7.0
390,11.0,-14.0,8.0,-6.0,0.0,-5.0,-4.0,-3.0,14.0,-9.0,10.0,-10.0,12.0,-13.0
391,-12.0,2.0,-10.0,8.0,-9.0,-2.0,-7.0,6.0,-16.0,-0.0,-12.0,6.0,-12.0,8.0
392,3.0,1.0,0.0,-0.0,8.0,-1.0,0.0,6.0,1.0,-0.0,0.0,-0.0,0.0,-2.0
393,-26.0,26.0,-17.0,23.0,-5.0,3.0,-4.0,4.0,-32.0,30.0,-20.0,18.0,-24.0,26.0
394,-30.0,33.0,-22.0,31.0,-11.0,8.0,-12.0,11.0,-38.0,30.0,-23.0,23.0,-29.0,25.0
395,-10.0,14.0,-9.0,10.0,-4.0,11.0,-2.0,3.0,-10.0,10.0,-8.0,11.0,-10.0,8.0
396,0.0,4.0,2.0,-0.0,6.0,-2.0,-1.0,2.0,1.0,2.0,-1.0,4.0,-1.0,2.0
397,-3.0,6.0,-5.0,7.0,-2.0,-2.0,-2.0,-0.0,-5.0,6.0,-3.0,8.0,-1.0,5.0
398,-8.0,20.0,-3.0,18.0,4.0,4.0,11.0,10.0,-8.0,12.0,-5.0,13.0,-6.0,13.0
399,-5.0,1.0,-6.0,4.0,2.0,0.0,-2.0,1.0,0.0,4.0,-5.0,6.0,-2.0,4.0
400,-11.0,10.0,-8.0,12.0,-5.0,4.0,-5.0,-2.0,-13.0,11.0,-10.0,13.0,-14.0,9.0
401,-26.0,38.0,-10.0,24.0,-8.0,-1.0,-16.0,8.0,-25.0,32.0,-24.0,19.0,-18.0,23.0
402,46.0,-27.0,39.0,-17.0,20.0,-5.0,15.0,-2.0,61.0,-28.0,42.0,-24.0,48.0,-24.0
403,-14.0,26.0,-16.0,26.0,-2.0,-0.0,2.0,0.0,-6.0,15.0,-10.0,20.0,-12.0,11.0
404,15.0,10.0,14.0,-6.0,5.0,16.0,7.0,2.0,22.0,-8.0,11.0,-4.0,9.0,-7.0
405,-21.0,24.0,-12.0,8.0,-13.0,-10.0,-2.0,10.0,-22.0,24.0,-18.0,18.0,-25.0,21.0
406,-17.0,13.0,-12.0,22.0,-2.0,2.0,2.0,6.0,-19.0,16.0,-11.0,17.0,-17.0,20.0
407,-7.0,-4.0,0.0,-6.0,-7.0,-8.0,-0.0,-9.0,-0.0,-7.0,-3.0,-4.0,-4.0,0.0
408,-14.0,19.0,-14.0,6.0,1.0,6.0,-4.0,3.0,-17.0,16.0,-9.0,13.0,-14.0,10.0
409,-4.0,1.0,-5.0,4.0,1.0,-5.0,1.0,-0.0,-5.0,2.0,-2.0,10.0,-8.0,6.0
410,-30.0,38.0,-20.0,31.0,-17.0,18.0,-9.0,19.0,-28.0,34.0,-23.0,30.0,-29.0,32.0
411,-13.0,13.0,-7.0,17.0,-5.0,-3.0,0.0,4.0,-19.0,16.0,-13.0,14.0,-19.0,16.0
412,-0.0,-3.0,-2.0,3.0,8.0,1.0,-0.0,-1.0,-4.0,1.0,3.0,7.0,1.0,-0.0
414,17.0,-12.0,17.0,-17.0,8.0,11.0,10.0,8.0,21.0,-11.0,16.0,-11.0,21.0,-10.0
415,35.0,-26.0,17.0,-30.0,-8.0,13.0,-5.0,11.0,34.0,-15.0,19.0,-15.0,28.0,-26.0
416,-16.0,7.0,-9.0,8.0,-6.0,3.0,-3.0,-0.0,-14.0,10.0,-7.0,6.0,-13.0,12.0
417,-16.0,4.0,-5.0,-0.0,8.0,4.0,5.0,-8.0,-11.0,6.0,-7.0,-8.0,-2.0,-12.0
418,6.0,-3.0,4.0,-3.0,-3.0,2.0,-1.0,8.0,2.0,-1.0,3.0,-1.0,1.0,2.0
419,2.0,-3.0,3.0,2.0,0.0,0.0,-0.0,1.0,2.0,2.0,2.0,-0.0,-1.0,0.0
420,-6.0,4.0,-6.0,5.0,0.0,-2.0,-2.0,-1.0,-9.0,6.0,-9.0,8.0,-10.0,7.0
421,-12.0,3.0,-6.0,9.0,-2.0,-2.0,-1.0,-1.0,-10.0,10.0,-7.0,6.0,-8.0,8.0
422,-26.0,43.0,-17.0,40.0,-15.0,1.0,-12.0,14.0,-38.0,31.0,-27.0,31.0,-28.0,31.0
423,-11.0,-0.0,-12.0,4.0,-4.0,-9.0,-5.0,2.0,-6.0,1.0,-9.0,-2.0,-4.0,-1.0
426,23.0,-8.0,4.0,-4.0,7.0,-10.0,6.0,-0.0,17.0,-11.0,13.0,-4.0,19.0,-2.0
427,38.0,-29.0,34.0,-36.0,6.0,0.0,10.0,-6.0,44.0,-27.0,32.0,-36.0,49.0,-34.0
428,-22.0,22.0,-17.0,17.0,-18.0,-0.0,-12.0,6.0,-29.0,25.0,-18.0,24.0,-18.0,29.0
430,20.0,-11.0,16.0,-14.0,0.0,10.0,7.0,-6.0,23.0,-24.0,10.0,-10.0,17.0,-16.0
431,-0.0,-4.0,-2.0,-0.0,2.0,-1.0,0.0,-3.0,-2.0,-3.0,-0.0,0.0,-0.0,0.0
432,-25.0,25.0,-30.0,27.0,-14.0,14.0,-8.0,10.0,-30.0,20.0,-28.0,32.0,-26.0,18.0
433,-34.0,42.0,-30.0,28.0,-26.0,19.0,-13.0,16.0,-44.0,35.0,-24.0,25.0,-28.0,33.0
434,12.0,-5.0,8.0,-12.0,-0.0,-2.0,2.0,2.0,10.0,-4.0,6.0,-9.0,9.0,-3.0
435,34.0,-39.0,21.0,-38.0,16.0,-4.0,14.0,-18.0,40.0,-36.0,28.0,-29.0,29.0,-37.0
436,-3.0,2.0,-2.0,10.0,-4.0,5.0,-5.0,4.0,-6.0,4.0,-4.0,6.0,-4.0,6.0
437,0.0,1.0,-1.0,3.0,-0.0,0.0,1.0,-2.0,-1.0,2.0,-0.0,4.0,-0.0,1.0
438,-21.0,31.0,-14.0,19.0,-14.0,15.0,-6.0,4.0,-26.0,22.0,-18.0,15.0,-24.0,24.0
439,-30.0,36.0,-16.0,37.0,-8.0,18.0,-2.0,16.0,-28.0,37.0,-19.0,32.0,-15.0,22.0
440,30.0,-19.0,24.0,-20.0,9.0,14.0,4.0,1.0,29.0,-27.0,24.0,-15.0,25.0,-20.0
441,-2.0,-1.0,-0.0,-2.0,-2.0,-1.0,0.0,2.0,-2.0,1.0,-0.0,-1.0,-1.0,1.0
442,16.0,-16.0,17.0,-21.0,7.0,-10.0,-1.0,-2.0,21.0,-21.0,18.0,-10.0,12.0,-18.0
443,-2.0,-4.0,-2.0,0.0,-3.0,-0.0,-2.0,-0.0,-0.0,-1.0,-3.0,2.0,-1.0,-1.0
444,50.0,-66.0,51.0,-39.0,1.0,-21.0,-2.0,-20.0,73.0,-58.0,41.0,-37.0,54.0,-38.0
445,-30.0,39.0,-20.0,23.0,-16.0,15.0,-8.0,9.0,-32.0,32.0,-22.0,22.0,-16.0,33.0
446,3.0,-0.0,-1.0,0.0,-2.0,4.0,0.0,-1.0,7.0,2.0,2.0,-4.0,4.0,-0.0
447,2.0,-9.0,-12.0,-6.0,1.0,9.0,-13.0,6.0,1.0,-3.0,0.0,-2.0,3.0,-7.0
448,-17.0,6.0,-16.0,22.0,-8.0,5.0,-4.0,18.0,-25.0,28.0,-19.0,15.0,-18.0,19.0
449,-5.0,-2.0,-8.0,-1.0,-11.0,2.0,-4.0,-4.0,-10.0,-3.0,-6.0,-1.0,-2.0,8.0
450,-6.0,-17.0,-12.0,-7.0,-5.0,10.0,-10.0,15.0,-4.0,-1.0,-0.0,-4.0,2.0,-6.0
453,-24.0,19.0,-16.0,26.0,-9.0,4.0,-12.0,9.0,-22.0,21.0,-14.0,17.0,-24.0,10.0
454,-8.0,11.0,-16.0,6.0,-7.0,16.0,-4.0,14.0,-6.0,14.0,-4.0,4.0,-0.0,9.0
455,26.0,-26.0,20.0,-24.0,-1.0,10.0,4.0,4.0,28.0,-20.0,27.0,-18.0,29.0,-24.0
456,34.0,-24.0,27.0,-18.0,7.0,-8.0,7.0,-2.0,43.0,-26.0,36.0,-13.0,36.0,-18.0
457,-6.0,-16.0,-18.0,-9.0,10.0,-26.0,6.0,-12.0,-2.0,-11.0,-8.0,-11.0,-3.0,-4.0
458,5.0,-4.0,2.0,-3.0,-4.0,-13.0,2.0,-2.0,6.0,-2.0,-0.0,-3.0,1.0,-3.0
459,9.0,-12.0,5.0,-8.0,16.0,-7.0,4.0,-7.0,13.0,-16.0,2.0,-11.0,9.0,-6.0
460,-7.0,11.0,-8.0,10.0,0.0,9.0,-6.0,13.0,-11.0,6.0,-7.0,10.0,-10.0,14.0
461,-16.0,10.0,-10.0,22.0,-5.0,1.0,-9.0,5.0,-22.0,34.0,-11.0,13.0,-11.0,27.0
462,-6.0,9.0,-9.0,12.0,2.0,5.0,-8.0,12.0,-10.0,14.0,-11.0,12.0,-8.0,10.0
463,23.0,-3.0,5.0,-13.0,6.0,2.0,4.0,7.0,21.0,-8.0,14.0,-6.0,20.0,-12.0
464,25.0,-17.0,22.0,-28.0,-1.0,-3.0,-1.0,-6.0,18.0,-17.0,21.0,-15.0,14.0,-14.0
465,9.0,-21.0,-2.0,-10.0,0.0,-2.0,2.0,-10.0,20.0,-25.0,6.0,-26.0,2.0,-32.0
466,18.0,-24.0,11.0,-19.0,9.0,-8.0,8.0,-6.0,22.0,-24.0,20.0,-18.0,24.0,-26.0
467,-8.0,32.0,-12.0,27.0,-4.0,17.0,5.0,8.0,-14.0,31.0,-7.0,20.0,-9.0,23.0
468,-2.0,-28.0,0.0,-27.0,-10.0,-26.0,-8.0,-16.0,-6.0,-31.0,0.0,-11.0,-4.0,-30.0
469,4.0,-19.0,6.0,-16.0,-5.0,-3.0,-1.0,-19.0,5.0,-23.0,6.0,-22.0,6.0,-22.0
470,-21.0,12.0,-18.0,19.0,-3.0,3.0,-3.0,3.0,-17.0,8.0,-17.0,14.0,-11.0,13.0
471,-8.0,21.0,-9.0,19.0,-6.0,22.0,-1.0,16.0,-10.0,19.0,-9.0,16.0,-11.0,16.0
472,15.0,-28.0,13.0,-31.0,71.0,-40.0,-3.0,4.0,12.0,-28.0,8.0,-18.0,8.0,-22.0
473,-14.0,26.0,-8.0,21.0,-0.0,2.0,-6.0,-0.0,-18.0,25.0,-8.0,17.0,-13.0,18.0
474,31.0,-38.0,20.0,-25.0,7.0,0.0,7.0,-3.0,35.0,-38.0,35.0,-26.0,28.0,-39.0
475,4.0,-12.0,-1.0,6.0,1.0,-8.0,3.0,-3.0,6.0,-7.0,4.0,-11.0,-0.0,2.0
476,-5.0,2.0,-12.0,4.0,-9.0,12.0,-14.0,6.0,-0.0,0.0,-7.0,7.0,-4.0,2.0
477,-84.0,58.0,-79.0,44.0,-13.0,11.0,-4.0,-14.0,-144.0,48.0,-72.0,68.0,-91.0,56.0
478,-21.0,24.0,-14.0,27.0,-15.0,22.0,-8.0,14.0,-26.0,26.0,-20.0,16.0,-20.0,23.0
479,-18.0,6.0,-7.0,8.0,-8.0,2.0,-11.0,6.0,-11.0,16.0,-11.0,2.0,-1.0,6.0
480,-20.0,10.0,-11.0,18.0,-8.0,6.0,-6.0,4.0,-17.0,18.0,-19.0,11.0,-15.0,16.0
481,-12.0,16.0,-7.0,12.0,-3.0,10.0,-0.0,0.0,-12.0,9.0,-6.0,15.0,-12.0,16.0
482,-27.0,18.0,-9.0,28.0,-14.0,8.0,-7.0,1.0,-24.0,26.0,-19.0,17.0,-17.0,25.0
483,-21.0,22.0,-8.0,22.0,-5.0,-3.0,-0.0,3.0,-21.0,26.0,-16.0,19.0,-17.0,21.0
484,46.0,-43.0,44.0,-37.0,1.0,-11.0,3.0,-6.0,55.0,-39.0,38.0,-38.0,42.0,-37.0
485,20.0,-21.0,7.0,-11.0,0.0,-7.0,-2.0,-2.0,16.0,-18.0,17.0,-14.0,18.0,-20.0
486,4.0,-5.0,12.0,-15.0,5.0,12.0,-8.0,-8.0,4.0,-14.0,11.0,-15.0,4.0,-9.0
487,-36.0,24.0,-26.0,26.0,-17.0,8.0,-12.0,12.0,-44.0,26.0,-29.0,25.0,-29.0,26.0
488,-23.0,16.0,-21.0,29.0,-12.0,-7.0,-2.0,-12.0,-44.0,22.0,-27.0,21.0,-27.0,22.0
489,17.0,3.0,14.0,-12.0,-10.0,16.0,-8.0,12.0,17.0,-5.0,17.0,-7.0,13.0,-8.0
490,-107.0,38.0,-118.0,9.0,3.0,-14.0,-6.0,-28.0,-111.0,18.0,-82.0,13.0,-103.0,-7.0
492,-97.0,52.0,-63.0,33.0,9.0,-11.0,10.0,-27.0,-81.0,52.0,-44.0,38.0,-69.0,34.0
493,45.0,-22.0,32.0,-22.0,8.0,9.0,11.0,-1.0,42.0,-20.0,25.0,-32.0,42.0,-26.0
494,-8.0,9.0,-7.0,16.0,-2.0,0.0,-4.0,4.0,-8.0,11.0,-8.0,3.0,-7.0,10.0
495,-20.0,23.0,-13.0,14.0,-13.0,14.0,-14.0,13.0,-18.0,22.0,-12.0,13.0,-12.0,14.0
496,18.0,-13.0,2.0,-17.0,11.0,-4.0,1.0,-11.0,6.0,-10.0,5.0,-19.0,12.0,-14.0
497,59.0,-23.0,44.0,-40.0,71.0,6.0,20.0,-14.0,69.0,-39.0,31.0,-24.0,51.0,-42.0
498,-7.0,-16.0,-1.0,-7.0,3.0,-7.0,-5.0,-9.0,4.0,-14.0,3.0,-2.0,0.0,4.0
499,-9.0,8.0,-9.0,14.0,6.0,14.0,25.0,5.0,-1.0,14.0,-9.0,8.0,0.0,8.0
500,31.0,-35.0,28.0,-32.0,-7.0,-5.0,-6.0,-10.0,19.0,-36.0,25.0,-23.0,-1.0,-24.0
501,-42.0,29.0,-40.0,24.0,-3.0,-13.0,2.0,-8.0,-43.0,42.0,-32.0,20.0,-44.0,27.0
502,-6.0,4.0,0.0,0.0,-1.0,1.0,0.0,0.0,-4.0,8.0,0.0,0.0,0.0,4.0
503,-2.0,-2.0,-4.0,-13.0,2.0,-2.0,-0.0,4.0,-3.0,-5.0,-6.0,-3.0,-2.0,-8.0
504,-38.0,33.0,-23.0,29.0,-18.0,-9.0,-6.0,7.0,-32.0,38.0,-31.0,38.0,-39.0,43.0
505,-9.0,-2.0,-1.0,-14.0,2.0,5.0,1.0,-5.0,-6.0,-3.0,-1.0,-17.0,0.0,-6.0
507,-24.0,9.0,-16.0,19.0,-10.0,5.0,-4.0,6.0,-20.0,10.0,-6.0,14.0,-16.0,14.0
508,0.0,4.0,-14.0,3.0,-6.0,3.0,3.0,4.0,-8.0,8.0,-4.0,-1.0,2.0,7.0
509,-15.0,11.0,-15.0,4.0,-6.0,3.0,-9.0,14.0,-14.0,16.0,-15.0,9.0,-14.0,8.0
510,70.0,-34.0,64.0,-39.0,2.0,-12.0,2.0,-8.0,100.0,-33.0,60.0,-35.0,91.0,-34.0
511,-36.0,32.0,-21.0,23.0,-17.0,-1.0,-10.0,17.0,-38.0,27.0,-22.0,20.0,-30.0,24.0
512,-15.0,22.0,-2.0,8.0,-14.0,3.0,-4.0,-0.0,-16.0,18.0,-10.0,16.0,-18.0,16.0
513,-10.0,14.0,-9.0,6.0,-8.0,-6.0,-2.0,-1.0,-16.0,11.0,-15.0,7.0,-14.0,6.0
514,-16.0,31.0,-12.0,36.0,1.0,0.0,5.0,14.0,-16.0,34.0,-17.0,34.0,-30.0,40.0
515,-32.0,41.0,-21.0,32.0,-13.0,18.0,-9.0,27.0,-24.0,28.0,-28.0,31.0,-26.0,27.0
516,4.0,-8.0,12.0,-9.0,-3.0,4.0,0.0,-2.0,3.0,1.0,7.0,-4.0,10.0,-7.0
517,-8.0,-58.0,-10.0,-67.0,-16.0,-29.0,-4.0,-17.0,-5.0,-104.0,-10.0,-72.0,-17.0,-84.0
518,-3.0,1.0,-6.0,-3.0,-8.0,16.0,-12.0,12.0,-12.0,-7.0,-3.0,1.0,-6.0,14.0
519,-23.0,-46.0,-40.0,-64.0,-24.0,-42.0,4.0,-41.0,-24.0,-78.0,-26.0,-72.0,-31.0,-66.0
520,50.0,-33.0,53.0,-33.0,-0.0,-11.0,1.0,-10.0,54.0,-35.0,42.0,-31.0,44.0,-24.0
521,-108.0,113.0,-60.0,84.0,35.0,-22.0,21.0,-20.0,-113.0,67.0,-81.0,78.0,-88.0,79.0
522,44.0,-44.0,35.0,-40.0,-5.0,-25.0,-2.0,-4.0,44.0,-43.0,32.0,-25.0,30.0,-39.0
523,-18.0,10.0,-12.0,-0.0,1.0,6.0,7.0,-12.0,-16.0,2.0,-21.0,-4.0,-21.0,0.0
524,53.0,-49.0,38.0,-38.0,4.0,-22.0,1.0,-11.0,62.0,-67.0,44.0,-50.0,44.0,-39.0
525,5.0,5.0,5.0,-9.0,11.0,-4.0,9.0,2.0,-2.0,0.0,9.0,-9.0,4.0,2.0
526,6.0,-12.0,-2.0,-4.0,4.0,6.0,-3.0,0.0,6.0,-12.0,6.0,-7.0,4.0,-5.0
527,-23.0,6.0,-13.0,18.0,-17.0,1.0,-4.0,9.0,-20.0,12.0,-12.0,15.0,-19.0,21.0
528,-11.0,-3.0,-10.0,15.0,-6.0,12.0,-9.0,15.0,-16.0,14.0,-12.0,7.0,-8.0,19.0
529,-33.0,28.0,-20.0,27.0,0.0,-3.0,-7.0,2.0,-20.0,51.0,-25.0,29.0,-20.0,20.0
531,-14.0,13.0,-10.0,9.0,-5.0,-4.0,-7.0,5.0,-17.0,4.0,-9.0,-4.0,-3.0,15.0
532,-9.0,38.0,-7.0,30.0,10.0,34.0,8.0,19.0,-18.0,24.0,-7.0,18.0,-11.0,24.0
533,6.0,-60.0,0.0,-38.0,-5.0,-28.0,-1.0,-17.0,12.0,-42.0,2.0,-45.0,2.0,-41.0
534,33.0,-22.0,25.0,-23.0,7.0,-4.0,5.0,-10.0,40.0,-30.0,27.0,-20.0,30.0,-17.0
536,14.0,-14.0,1.0,2.0,-0.0,8.0,2.0,10.0,11.0,-13.0,8.0,-1.0,2.0,4.0
537,0.0,6.0,4.0,-4.0,0.0,-4.0,0.0,2.0,11.0,-6.0,8.0,-9.0,8.0,-4.0
538,33.0,-26.0,27.0,-22.0,1.0,-7.0,6.0,-12.0,46.0,-28.0,27.0,-28.0,31.0,-18.0
539,-2.0,23.0,-11.0,12.0,0.0,10.0,-1.0,-2.0,-7.0,14.0,-5.0,8.0,-8.0,10.0
540,1.0,13.0,-7.0,5.0,-6.0,22.0,-4.0,25.0,-2.0,8.0,-3.0,1.0,4.0,16.0
545,-20.0,21.0,-16.0,19.0,-8.0,9.0,-1.0,8.0,-24.0,25.0,-16.0,17.0,-19.0,14.0
546,16.0,-22.0,12.0,-15.0,14.0,-22.0,-4.0,6.0,18.0,-8.0,14.0,-4.0,13.0,-10.0
2000,21.0,-14.0,19.0,-9.0,5.0,4.0,9.0,4.0,29.0,-13.0,17.0,-22.0,17.0,-17.0
2001,6.0,-5.0,4.0,-3.0,0.0,0.0,0.0,2.0,7.0,-4.0,4.0,-4.0,6.0,-3.0
2002,-6.0,13.0,-4.0,15.0,5.0,8.0,4.0,-8.0,-9.0,11.0,-4.0,12.0,-8.0,16.0
2003,-33.0,28.0,-18.0,22.0,-15.0,-4.0,-4.0,2.0,-36.0,30.0,-23.0,23.0,-34.0,22.0
2004,6.0,-8.0,6.0,-10.0,1.0,-2.0,2.0,4.0,12.0,-6.0,5.0,-5.0,7.0,-8.0
2005,4.0,-0.0,3.0,-4.0,0.0,0.0,2.0,-2.0,5.0,-5.0,4.0,-4.0,5.0,-3.0
2006,20.0,-24.0,18.0,-29.0,25.0,0.0,33.0,-9.0,12.0,-12.0,5.0,-11.0,17.0,-13.0
2008,-0.0,-8.0,-1.0,2.0,3.0,1.0,-0.0,0.0,-4.0,-1.0,-1.0,-1.0,-3.0,4.0
2009,-15.0,14.0,-10.0,8.0,-4.0,4.0,-1.0,11.0,-14.0,10.0,-8.0,19.0,-14.0,16.0
2010,25.0,-22.0,16.0,-22.0,6.0,4.0,2.0,-4.0,26.0,-20.0,19.0,-13.0,21.0,-19.0
2012,4.0,-8.0,0.0,-7.0,2.0,-6.0,-1.0,-1.0,10.0,-12.0,-4.0,-6.0,-2.0,-4.0
2017,9.0,-11.0,12.0,-14.0,-6.0,-0.0,-3.0,1.0,6.0,-8.0,11.0,-9.0,14.0,-14.0
2021,-9.0,0.0,-4.0,5.0,2.0,-2.0,-9.0,4.0,-1.0,9.0,-1.0,-0.0,2.0,-2.0
2022,-10.0,11.0,-8.0,18.0,-6.0,18.0,-2.0,4.0,-18.0,22.0,-10.0,14.0,-13.0,20.0
2023,21.0,-15.0,21.0,-19.0,4.0,-14.0,-1.0,-2.0,14.0,-14.0,20.0,-11.0,19.0,-22.0
3002,-0.0,21.0,3.0,12.0,-2.0,21.0,7.0,5.0,-6.0,23.0,-4.0,8.0,-0.0,8.0